AutoECO Report
FILE-A: D:\ORCAD PRACTIC\BAI36_EEG 8 CHANNELS\EEG 8 CHANNELS-21.MAX
FILE-B: D:\ORCAD PRACTIC\BAI36_EEG 8 CHANNELS\EEG 8 CHANNELS.MNL
If "*EOF*" immediately follows, no changes were made
Deleting U9.47 from net PA12
Adding U7.36 to net PB15
Adding U7.51 to net PC10
Adding U7.33 to net PB12
Adding U7.27 to net PB1
Adding U7.50 to net PA15
Adding U7.2 to net PC13
Adding U7.40 to net PC9
Adding U7.35 to net PB14
Adding U9.41 to net DAISY_IN
Adding U7.56 to net PB4
Adding U7.39 to net PC8
Adding U7.37 to net PC6
Adding U7.34 to net PB13
Adding U7.38 to net PC7
Adding U7.54 to net T3_ETR
Adding U7.59 to net I2C1_SDA
Adding U7.25 to net PC5
Adding U7.15 to net PA1
Adding U7.17 to net PA3
Adding U7.16 to net PA2
Adding U7.24 to net PC4
Adding U9.47 to net PC4
Adding U7.58 to net I2C1_SCL
Adding U7.62 to net PB9
Adding U7.57 to net PB5
Adding U7.61 to net PB8
*EOF*
No errors found
