AutoECO Report
FILE-A: D:\ORCAD PRACTIC\BAI36_EEG 8 CHANNELS\EEG 8 CHANNELS-1.MAX
FILE-B: D:\ORCAD PRACTIC\BAI36_EEG 8 CHANNELS\EEG 8 CHANNELS.MNL
If "*EOF*" immediately follows, no changes were made
Adding footprint SMD MS412FE-FL26E
Component C26 -- overriding attributes
Component J12 -- overriding attributes
Component R23 -- overriding attributes
Component C44 -- overriding attributes
Component C2 -- overriding attributes
Component Y2 -- overriding attributes
Component R27 -- overriding attributes
Component U3 -- overriding attributes
Component C68 -- overriding attributes
Component C70 -- overriding attributes
Component L2 -- overriding attributes
Component C41 -- overriding attributes
Component C30 -- overriding attributes
Component U5 -- overriding attributes
Component D2 -- overriding attributes
Component L4 -- overriding attributes
Component J2 -- overriding attributes
Component R30 -- overriding attributes
Component R6 -- overriding attributes
Component D7 -- overriding attributes
Component R19 -- overriding attributes
Component SW1 -- overriding attributes
Component C78 -- overriding attributes
Component R11 -- overriding attributes
Component Q1 -- overriding attributes
Component R47 -- overriding attributes
Component R3 -- overriding attributes
Component C4 -- overriding attributes
Component R18 -- overriding attributes
Component C25 -- overriding attributes
Component C20 -- overriding attributes
Component C21 -- overriding attributes
Component R38 -- overriding attributes
Component R26 -- overriding attributes
Component C3 -- overriding attributes
Component C71 -- overriding attributes
Component D4 -- overriding attributes
Component C47 -- overriding attributes
Component C14 -- overriding attributes
Component U6 -- overriding attributes
Component C62 -- overriding attributes
Component R41 -- overriding attributes
Component R13 -- overriding attributes
Component C32 -- overriding attributes
Component C63 -- overriding attributes
Component R40 -- overriding attributes
Component C59 -- overriding attributes
Component L1 -- overriding attributes
Component C75 -- overriding attributes
Component J11 -- overriding attributes
Component R42 -- overriding attributes
Component R22 -- overriding attributes
Component C9 -- overriding attributes
Component C69 -- overriding attributes
Component R39 -- overriding attributes
Component U10 -- overriding attributes
Component R24 -- overriding attributes
Component R1 -- overriding attributes
Component C60 -- overriding attributes
Component C15 -- overriding attributes
Component R4 -- overriding attributes
Component C65 -- overriding attributes
Component C31 -- overriding attributes
Component C35 -- overriding attributes
Component C61 -- overriding attributes
Component J6 -- overriding attributes
Component C13 -- overriding attributes
Component R2 -- overriding attributes
Component C6 -- overriding attributes
Component C24 -- overriding attributes
Component C1 -- overriding attributes
Component D3 -- overriding attributes
Component J15 -- overriding attributes
Component C27 -- overriding attributes
Component R33 -- overriding attributes
Component C46 -- overriding attributes
Component J10 -- overriding attributes
Component C34 -- overriding attributes
Component SW2 -- overriding attributes
Component R31 -- overriding attributes
Component C12 -- overriding attributes
Component R45 -- overriding attributes
Component C18 -- overriding attributes
Component C19 -- overriding attributes
Component C28 -- overriding attributes
Component C73 -- overriding attributes
Component C72 -- overriding attributes
Component R17 -- overriding attributes
Component J1 -- overriding attributes
Component C22 -- overriding attributes
Component C36 -- overriding attributes
Component R25 -- overriding attributes
Component C11 -- overriding attributes
Component J13 -- overriding attributes
Component R37 -- overriding attributes
Component C7 -- overriding attributes
Component C58 -- overriding attributes
Component U9 -- overriding attributes
Component L3 -- overriding attributes
Component R29 -- overriding attributes
Component C17 -- overriding attributes
Component R20 -- overriding attributes
Component C43 -- overriding attributes
Component C77 -- overriding attributes
Component C10 -- overriding attributes
Component C56 -- overriding attributes
Component J9 -- overriding attributes
Component R32 -- overriding attributes
Component C23 -- overriding attributes
Component R16 -- overriding attributes
Component C66 -- overriding attributes
Component R21 -- overriding attributes
Component BT1 -- overriding attributes
Component C53 -- overriding attributes
Component C55 -- overriding attributes
Component J7 -- overriding attributes
Component C64 -- overriding attributes
Component C40 -- overriding attributes
Component J8 -- overriding attributes
Component C45 -- overriding attributes
Component C79 -- overriding attributes
Component R36 -- overriding attributes
Component C57 -- overriding attributes
Component D1 -- overriding attributes
Component R9 -- overriding attributes
Component C48 -- overriding attributes
Component C33 -- overriding attributes
Component D6 -- overriding attributes
Component C80 -- overriding attributes
Component Y1 -- overriding attributes
Component R35 -- overriding attributes
Component U4 -- overriding attributes
Component R46 -- overriding attributes
Component J14 -- overriding attributes
Component D5 -- overriding attributes
Component J5 -- overriding attributes
Component C29 -- overriding attributes
Component H2 -- overriding attributes
Component R44 -- overriding attributes
Component U7 -- overriding attributes
Component C42 -- overriding attributes
Component U8 -- overriding attributes
Component C37 -- overriding attributes
Component R10 -- overriding attributes
Component C76 -- overriding attributes
Component C8 -- overriding attributes
Component C38 -- overriding attributes
Component R5 -- overriding attributes
Component H1 -- overriding attributes
Component C52 -- overriding attributes
Component C67 -- overriding attributes
Component C74 -- overriding attributes
Component R15 -- overriding attributes
Component R43 -- overriding attributes
Component C81 -- overriding attributes
Component C16 -- overriding attributes
Component U2 -- overriding attributes
Component J3 -- overriding attributes
Component C50 -- overriding attributes
Component H3 -- overriding attributes
Component R34 -- overriding attributes
Component R28 -- overriding attributes
Component C54 -- overriding attributes
Component R14 -- overriding attributes
Component J4 -- overriding attributes
Component U1 -- overriding attributes
Component C39 -- overriding attributes
Component C5 -- overriding attributes
Component C51 -- overriding attributes
Component R12 -- overriding attributes
Component C49 -- overriding attributes
Component L5 -- overriding attributes
Component H4 -- overriding attributes
Component R7 -- overriding attributes
Net N1 -- overriding attributes
Net N5 -- overriding attributes
Net P8 -- overriding attributes
Net PC14 -- overriding attributes
Net KEY -- overriding attributes
Net B -- overriding attributes
Net PD1 -- overriding attributes
Net BOOT0 -- overriding attributes
Net N15324581 -- overriding attributes
Net PC12 -- overriding attributes
Net N15325729 -- overriding attributes
Net N15320769 -- overriding attributes
Net AVDD -- overriding attributes
Net N15320903 -- overriding attributes
Net P7 -- overriding attributes
Net N15322857 -- overriding attributes
Net AVSS -- overriding attributes
Net N15321775 -- overriding attributes
Net N15326077 -- overriding attributes
Net P3 -- overriding attributes
Net P6 -- overriding attributes
Net PD0 -- overriding attributes
Net N16771048 -- overriding attributes
Net N15324093 -- overriding attributes
Net N15661659 -- overriding attributes
Net PB3 -- overriding attributes
Net PA12 -- overriding attributes
Net N15325829 -- overriding attributes
Net N15321911 -- overriding attributes
Net N15324439 -- overriding attributes
Net A -- overriding attributes
Net +V5JAC -- overriding attributes
Net BIAS_ELEC -- overriding attributes
Net PC15 -- overriding attributes
Net N8 -- overriding attributes
Net P4 -- overriding attributes
Net ADS_RE -- overriding attributes
Net N15324097 -- overriding attributes
Net N7 -- overriding attributes
Net N15324427 -- overriding attributes
Net N15324251 -- overriding attributes
Net MC_FAST -- overriding attributes
Net N16770956 -- overriding attributes
Net N15653463 -- overriding attributes
Net N15323747 -- overriding attributes
Net N15326009 -- overriding attributes
Net N15652668 -- overriding attributes
Net N6 -- overriding attributes
Net BOOT1 -- overriding attributes
Net N15325841 -- overriding attributes
Net N15320841 -- overriding attributes
Net P1 -- overriding attributes
Net N15321763 -- overriding attributes
Net N15326105 -- overriding attributes
Net N15324101 -- overriding attributes
Net N15321293 -- overriding attributes
Net N15324649 -- overriding attributes
Net +3V3 -- overriding attributes
Net ADS_CLKSEL -- overriding attributes
Net N16771012 -- overriding attributes
Net GND -- overriding attributes
Net N15320819 -- overriding attributes
Net N15320815 -- overriding attributes
Net P5 -- overriding attributes
Net N15324499 -- overriding attributes
Net P2 -- overriding attributes
Net N15324887 -- overriding attributes
Net N15322781 -- overriding attributes
Net VREFP -- overriding attributes
Net PA9 -- overriding attributes
Net PA10 -- overriding attributes
Net N153266550 -- overriding attributes
Net N153242431 -- overriding attributes
Net N153227333 -- overriding attributes
Net N153235531 -- overriding attributes
Net N167711706 -- overriding attributes
Net N167709041 -- overriding attributes
Net N167701861 -- overriding attributes
Net N167701860 -- overriding attributes
Net PA6 -- overriding attributes
Net PA5 -- overriding attributes
Net PA4 -- overriding attributes
Net PA7 -- overriding attributes
Net DBG_TXD3 -- overriding attributes
Net DBG_RXD3 -- overriding attributes
Net BATT -- overriding attributes
Net VBAT -- overriding attributes
Net N17753664 -- overriding attributes
Net N177683930 -- overriding attributes
Net N177732900 -- overriding attributes
Net PC2 -- overriding attributes
Net PC3 -- overriding attributes
Net N17065029 -- overriding attributes
Net N17080304 -- overriding attributes
Net N15684736 -- overriding attributes
Net N15324819 -- overriding attributes
Net N17145977 -- overriding attributes
Net N17126060 -- overriding attributes
Net N17187057 -- overriding attributes
Net PA14 -- overriding attributes
Net N17199297 -- overriding attributes
Net N15686365 -- overriding attributes
Net N15322705 -- overriding attributes
Net N4 -- overriding attributes
Net PA0 -- overriding attributes
Net DVDD_ADS -- overriding attributes
Net N3 -- overriding attributes
Net NRST -- overriding attributes
Net N15323447 -- overriding attributes
Net N15320765 -- overriding attributes
Net N15325277 -- overriding attributes
Net AGND -- overriding attributes
Net N16770976 -- overriding attributes
Net REF_ELEC -- overriding attributes
Net N15321151 -- overriding attributes
Net N2 -- overriding attributes
Net N15324891 -- overriding attributes
Net VCC -- overriding attributes
Net N15324165 -- overriding attributes
Net PA13 -- overriding attributes
Net N15322065 -- overriding attributes
Adding U7.61 to net PB8
Adding U7.57 to net PB5
Adding U7.62 to net PB9
Adding U7.58 to net I2C1_SCL
Adding U7.24 to net PC4
Adding U7.16 to net PA2
Adding U7.17 to net PA3
Adding U7.15 to net PA1
Adding U7.25 to net PC5
Adding U7.59 to net I2C1_SDA
Adding U7.54 to net T3_ETR
Adding U7.38 to net PC7
Adding U7.34 to net PB13
Adding U7.37 to net PC6
Adding U7.39 to net PC8
Adding U7.56 to net PB4
Adding U9.41 to net DAISY_IN
Adding U7.35 to net PB14
Adding U7.40 to net PC9
Adding U7.2 to net PC13
Adding U7.50 to net PA15
Adding U7.27 to net PB1
Adding U7.33 to net PB12
Adding U7.51 to net PC10
Adding U7.36 to net PB15
*EOF*
No errors found
